1 3 8
14273 412453 449
85754 457351 449
377699 530341 470
435833 913535 525
750475 945760 525
141451 224318 386
131642 584019 470
583447 659262 509
22751 248790 443
45331 157969 383
14129 913967 525
540129 846184 525
398696 567549 470
46602 879311 525
20867 563729 470
555789 729916 509
103080 501485 449
456269 948660 525
191636 735601 509
83718 575914 470
674182 734265 504
48974 793088 509
331461 479612 449
181782 691781 509
282860 788595 509
349876 938932 525
309488 476961 449
257730 525060 470
359462 579391 470
149918 494098 449
155547 233618 443
27137 447788 449
290205 939278 525
934163 985728 507
46247 845540 525
436147 760377 509
148340 338007 443
5779 916720 525
274819 988634 525
324383 875245 525
19546 410020 449
511208 754786 509
58549 774684 509
621190 881509 525
258923 530322 470
486959 638878 509
624780 718997 509
393486 618386 470
141380 255120 443
413121 644208 509
172143 368999 443
644318 717326 504
57932 604688 470
59529 119127 354
18097 25771 282
189508 650200 509
102567 558712 470
529898 909724 525
35959 386652 443
140463 780205 509
770614 996020 525
362481 448354 449
246443 365018 441
444539 627112 509
61550 522204 470
711889 726974 411
308474 778138 509
483907 659169 509
5896 652241 509
110880 459036 449
115877 720094 509
42817 786710 509
522761 571269 452
55430 923251 525
187918 196514 360
109157 398682 443
20674 810409 509
203330 806880 509
28671 821258 509
606561 783105 509
487416 501607 426
112619 542041 470
43786 687881 509
370540 466158 449
49853 254025 443
827400 964894 525
78882 96020 333
5695 688522 509
488471 528110 470
7607 626847 509
175435 513641 470
402873 920083 525
692211 907866 525
476226 893102 525
424225 705818 509
237157 554960 470
712010 986560 525
39826 824763 509
428051 863021 525
865818 940061 507
185778 632314 509
479523 915831 525
318822 780535 509
438099 594669 470
647874 872954 525
602032 605695 372
263146 740356 509
446821 945461 525
151593 789960 509
46546 322341 443
746465 821250 468
445293 609316 470
158882 953662 525
231558 905820 525
102353 251036 443
206149 873386 525
214824 267176 443
680327 697654 442
268240 843960 525
12033 484873 449
69074 824388 509
643866 696164 442
708178 751936 424
516367 923375 525
207208 794387 509
96391 663935 509
386329 826403 509
97906 755547 509
299828 728663 509
282694 767969 509
528045 800857 509
370434 796063 509
486800 905916 525
258561 515451 470
155910 481733 449
75631 350980 443
407859 448935 449
230112 795367 509
318473 486597 449
322131 521347 470
86155 304352 443
400009 491874 449
284776 352157 441
426312 955041 525
499867 950876 525
548917 739369 509
85333 989057 525
292013 826204 509
473807 724068 509
73681 796006 509
151362 814325 509
36495 488808 449
360941 906039 525
49568 620287 470
348901 926785 525
535591 899517 525
274705 428105 449
535141 935868 525
378435 550148 470
285618 561155 470
439850 455297 387
256759 724359 509
468719 626619 509
21553 685939 509
736787 754373 424
122922 898441 525
266454 568840 470
381821 582333 470
881951 928232 476
252370 493952 449
190890 371441 443
254346 967454 525
66168 82442 351
201371 239878 443
224348 864186 525
323642 612267 470
380346 588975 470
553276 816234 509
656019 791032 504
428099 885289 525
487525 792875 509
3521 485243 449
604888 608550 403
562325 913755 525
376197 885442 525
382602 772975 509
150154 398416 443
601130 772654 509
697117 924376 525
115641 297236 443
332240 336750 366
821876 895333 525
676759 875368 525
403802 594536 470
229450 602834 470
435330 445315 400
236158 944068 525
69360 657376 509
999995 999999 259
