1 10 20
100 200 125
201 210 89
900 1000 174
960148 968498 414
967962 980096 458
962934 977018 458
984141 985077 352
987267 994897 365
911786 989087 507
930996 989141 507
967563 994727 458
958731 993453 458
940033 987026 458
909500 921284 476
923791 958858 507
954814 997784 458
917192 935173 476
908070 982859 507
954571 992250 458
942594 956949 414
901779 942738 507
908420 983913 507
943336 969337 414
921746 969824 507
953579 968333 414
912370 951196 507
992231 999040 440
987456 989339 352
940867 959408 414
901059 910961 476
962064 978934 458
903879 907133 445
916991 960494 507
900128 978916 507
919380 938102 476
944634 970067 414
919387 950541 507
954733 979956 458
912686 943605 507
912382 920463 432
961402 977569 458
903785 919677 476
906663 909053 370
936702 964648 507
920564 969660 507
918257 988780 507
942312 958177 414
900691 992964 507
922502 969032 507
903164 982103 507
930602 938869 445
925919 951626 507
968861 996151 458
948246 978185 458
948645 993450 458
911320 913058 401
900133 952988 507
905648 943646 507
183 332 144
112 538 144
333 755 171
175 223 120
62 277 128
173 485 144
283 136 128
424 242 144
383 731 171
243 45 128
55 370 144
274 635 144
328 240 144
384 382 46
323 290 131
374 632 142
199 371 144
110 290 128
2 99 119
351 687 145
444 452 116
320 489 144
239 245 97
208 637 144
255 656 145
313 150 131
334 730 171
265 103 128
352 587 142
329 410 126
105 311 128
378 547 142
274 388 144
166 326 131
379 791 171
22 356 144
79 478 144
61 389 144
306 100 128
138 145 117
246 624 144
384 249 144
381 256 144
253 272 123
196 23 125
98 518 144
204 630 144
150 270 128
109 116 114
336 226 144
2 197 125
404 396 121
422 213 144
282 324 131
355 572 142
1 1 1
2 2 2
